{
    "add_repo": {
        "intro": "Σάρωση του κωδικού QR από αποθετήρια που θέλετε να προσθέσετε από συσκευές ή ιστοσελίδες από όπου μπορούν να βρεθούν.",
        "no_internet": "Όχι διαδίκτυο; Κανένα πρόβλημα. Μάθετε <a href=\"../swap/\">Πώς να Στείλετε και να Λάβετε Εφαρμογές χωρίς Σύνδεση.</a>",
        "open_repo_link": {
            "description": "Εάν σταλεί ένας σύνδεσμος αποθετηρίου μέσω ηλεκτρονικού ταχυδρομείου, κοινωνικά δίκτυα ή SMS, προσθέστε τη δυνατότητα να εγκαταστήσετε τις εφαρμογές σε αυτό στο F-Droid ανοίγοντας το.",
            "short_summary": "Άνοιγμα του συνδέσμου αποθετηρίου",
            "steps": {
                "step_1": "Κατεβάστε και εγκαταστήστε την εφαρμογή F-Droid στην Android συσκευή σας."
            }
        }
    }
}
